{
    "pose_backends": [
        {
            "name": "void"
        }
    ],
    "cameras": {
        "input_paths": [
            "/dev/video0"
        ],
        "flip_camera": false,
        "params": {
            "/dev/video0": {
                "resolution": [640, 480],
                "framerate": 30
            }
        },
        "intrinsics": {}
    },
    "filters": {
        "skeletons": {},
        "frame_action_detection": {
            "action_detection_config_path": "external/mmaction2/configs/recognition/i3d/i3d_r50_video_inference_32x2x1_100e_kinetics400_rgb.py",
            "label_map_path": "external/mmaction2/tools/data/kinetics/label_map_k400.txt",
            "camera_resolution": [640, 480],
            "device": "cuda:0",
            "average_size": 3,
            "threshold": 0.4,
            "inference_fps": 0,
            "checkpoint_url": "https://download.openmmlab.com/mmaction/recognition/i3d/i3d_r50_32x2x1_100e_kinetics400_rgb/i3d_r50_32x2x1_100e_kinetics400_rgb_20200614-c25ef9a4.pth"
        }
    },
    "outputs": {
        "osc": {
            "destinations": {
                "localhost": 9000
            }
        }
    }
}
