{
    "pose_backends": [
        {
            "name": "mediapipe",
            "params": {
                "detect_faces": false,
                "detect_face_meshs": false,
                "detect_hands": true,
                "detect_poses": false,
                "detect_holistic": false,
                "use_gpu": true,
                "min_detection_confidence": 0.5
            }
        }
    ],
    "cameras": {
        "input_paths":["/dev/video0"],
        "params": {
            "/dev/video0": {
                "resolution": [640, 480],
                "framerate": 30,
                "flip": false
            }
        },
        "intrinsics": {}
    },
    "dimmaps": {
        "pose2d_to_floor": {
            "pairs_per_camera": {
                "/dev/video0" : [
                    [[0.0, 0.0], [0.0, 0.0]],
                    [[640.0, 0.0], [1.0, 0.0]],
                    [[640.0, 480.0], [1.0, 1.0]],
                    [[0.0, 480.0], [0.0, 1.0]]
                ]
            }
        }
    },
    "filters": {
        "skeletons": {
            "two_dimensional": true,
            "three_dimensional": false,
            "min_pose_completeness": 0.5
        }
    },
    "outputs": {
        "osc": {
            "destinations": {
                "localhost": 9000
            }
        }
    }
}
