{
    "pose_backends": [
        {
            "name": "trt",
            "params": {
                "optimize": false,
                "keypoint_dataset": "BODY_25",
                "model_path": "livepose/models/trt",
                "model_optimized": "resnet18_baseline_att_224x224_A_epoch_249_trt.pth",
                "model_weights": "resnet18_baseline_att_224x224_A_epoch_249.pth",
                "model_desc": "human_pose.json",
                "model_height": 224,
                "model_width": 224,
                "min_pose_confidence": 0.15
            }
        }
    ],
    "cameras": {
        "input_paths": [
            "/dev/video0"
        ],
        "flip_camera": false,
        "params": {
            "/dev/video0": {
                "resolution": [
                    640,
                    480
                ],
                "framerate": 30
            }
        },
        "intrinsics": {}
    },
    "filters": {
        "skeletons": {}
    },
    "outputs": {
        "osc": {
            "destinations": {
                "localhost": 9000
            }
        }
    }
}
